<svg id="pattern" data-name="layer" xmlns="http://www.w3.org/2000/svg" viewBox="0 0 272.13 183.18">
    <defs>
        <style>
            .line{fill:#87433a;}
            .more-button:hover .line {fill: #2c2c3f;}
        </style>
    </defs>
    <title>pattern</title>
    <path class="line" d="M730.93,350.41a2.23,2.23,0,1,0-2.22,2A2.14,2.14,0,0,0,730.93,350.41Z"
          transform="translate(-616.52 -258.82)"/>
    <path class="line" d="M737.79,350.41a2.57,2.57,0,1,0-2.57,2.36A2.47,2.47,0,0,0,737.79,350.41Z"
          transform="translate(-616.52 -258.82)"/>
    <ellipse class="line" cx="126.03" cy="91.59" rx="2.9" ry="2.67"/>
    <path class="line" d="M724.48,350.41a1.9,1.9,0,1,0-1.89,1.74A1.82,1.82,0,0,0,724.48,350.41Z"
          transform="translate(-616.52 -258.82)"/>
    <path class="line" d="M718.64,350.41a1.56,1.56,0,1,0-1.55,1.43A1.49,1.49,0,0,0,718.64,350.41Z"
          transform="translate(-616.52 -258.82)"/>
    <path class="line"
          d="M712.67,356.55c-.39,0-1.5-.33-1.42.28a15.76,15.76,0,0,1,7.12,3.54c2.18,2.05,3.33,4.77,2.36,7.68a5.72,5.72,0,0,1-3.1,3.05,2.67,2.67,0,0,1-3.38-1.17,2.3,2.3,0,0,1-.2-.61.87.87,0,0,0,.16.23,1.33,1.33,0,0,0,1.88.13,1.37,1.37,0,0,0,.13-2.12c-.74-.84-1.9,0-2.16.4-.95,1.39.51,3.26,1.87,3.6,3.1.79,6.64-2.22,7-5.29.36-2.81-1.42-5.27-3.44-6.94a12.3,12.3,0,0,0-4.71-2.39A13.91,13.91,0,0,0,712.67,356.55Z"
          transform="translate(-616.52 -258.82)"/>
    <path class="line" d="M714,350.41a1.22,1.22,0,1,0-1.22,1.12A1.17,1.17,0,0,0,714,350.41Z"
          transform="translate(-616.52 -258.82)"/>
    <path class="line"
          d="M752.59,437.73c.44.29.89.57,1.35.83a24.73,24.73,0,0,0,14.51,3.34,22.12,22.12,0,0,0,7.2-2,23.3,23.3,0,0,0,6-4.31,23.85,23.85,0,0,1-13.31,5.18,25.4,25.4,0,0,1-13.71-3.42c-.7-.39-1.39-.82-2.06-1.27a28.54,28.54,0,0,1-8.38-8.43,81.09,81.09,0,0,1-5.85-13.41,62,62,0,0,0,5,13.89A27,27,0,0,0,752.59,437.73Z"
          transform="translate(-616.52 -258.82)"/>
    <path class="line"
          d="M708.93,412.27c-.64-8.07,2-16.88,10.45-19.65a18.38,18.38,0,0,1,21.16,7.59l-.27-.56c-3.76-7.65-13.41-11.09-21.36-8.4C710.06,394.3,707,403.71,708.93,412.27Z"
          transform="translate(-616.52 -258.82)"/>
    <path class="line" d="M705.31,401.66C706.72,384.47,725,381.5,736.92,391,726.31,379.15,703.7,383.27,705.31,401.66Z"
          transform="translate(-616.52 -258.82)"/>
    <path class="line"
          d="M668.1,393.46c6.88,0,16.33-4.39,18.39-12.06-6.61,10.5-29.2,13.09-37.67,1.1C652.32,391.64,660.38,393.46,668.1,393.46Z"
          transform="translate(-616.52 -258.82)"/>
    <path class="line"
          d="M667.72,388.38c7.32.09,19.29-5.68,20.46-17.34-3.36,7.8-13.38,14.54-20.8,14.4-10.1-.18-17.56-4.4-22.26-13.91C648.59,384.12,656.7,388.26,667.72,388.38Z"
          transform="translate(-616.52 -258.82)"/>
    <path class="line"
          d="M717.11,417.24c3.66,2.57,10.25,3.6,13.07-.7,1.82-2.78,1.2-8.74-3.37-7.72,5.35-.48,4.1,7.13.46,8.63-4,1.65-9.19-1-11.32-4.44-5.44-8.81,5.35-16.38,13.41-14.1,9.81,2.78,11,17,15.75,24.55a25.78,25.78,0,0,0,7.48,7.75,27.58,27.58,0,0,0,12.92,4.53c9.11.82,16.22-3.84,20.29-10.34,4.4-7,4.45-15.36,2.52-23.19-4.73-19.2-18.78-31.42-35.73-38.58a112.68,112.68,0,0,0-34.67-8c1.81,0,.51-.24-7.9-.39,14,1.36,29.28,4.5,42.57,10.77,14.71,6.95,27,17.76,32.21,34.3,2.28,7.19,3.08,15.25-.37,22.21-3,6.12-9.63,11.27-16.75,10.9-6.06-.26-13-7-10.36-13.42,1-2.5,4.09-4.79,6.9-4,2.62.71,4.62,5.57.89,6.12,3.92-.26,2.22-5.36-.15-6.5-3.17-1.54-7.07.8-8.57,3.63-2.89,5.43.93,11.77,5.9,14.64a26.74,26.74,0,0,1-17.62-16.31c-3.91-9.62-6.47-22.16-19.38-22.05C714.2,395.58,707.09,410.2,717.11,417.24Z"
          transform="translate(-616.52 -258.82)"/>
    <path class="line"
          d="M725.29,305.38c12.91.1,15.47-12.43,19.38-22.05A26.74,26.74,0,0,1,762.29,267c-5,2.86-8.79,9.2-5.9,14.63,1.5,2.84,5.4,5.17,8.57,3.64,2.37-1.14,4.07-6.24.15-6.5,3.73.55,1.73,5.4-.89,6.12-2.81.77-5.87-1.51-6.9-4-2.67-6.45,4.3-13.16,10.36-13.42,7.12-.37,13.71,4.78,16.75,10.9,3.45,7,2.65,15,.37,22.2-5.25,16.55-17.5,27.36-32.21,34.31-13.29,6.27-28.59,9.4-42.57,10.77,8.41-.15,9.71-.37,7.9-.39a113,113,0,0,0,34.67-8c16.95-7.16,31-19.39,35.73-38.58,1.93-7.84,1.88-16.17-2.52-23.19-4.07-6.5-11.18-11.16-20.29-10.34a27.47,27.47,0,0,0-12.92,4.53,25.78,25.78,0,0,0-7.48,7.75c-4.7,7.5-5.94,21.77-15.75,24.54-8.06,2.28-18.85-5.29-13.41-14.09,2.13-3.44,7.32-6.09,11.32-4.44,3.64,1.5,4.89,9.11-.46,8.63,4.57,1,5.19-4.95,3.37-7.72-2.82-4.3-9.41-3.28-13.07-.71C707.09,290.67,714.2,305.29,725.29,305.38Z"
          transform="translate(-616.52 -258.82)"/>
    <path class="line"
          d="M731.11,325.31c4.72,5.19,0,11.88-9.16,16.64,14.94-2.28,24.54-5.92,30.64-10,12.15-8.09,10.41-17.83,9.28-21.69a10.52,10.52,0,0,0-9.28-7.25,9.48,9.48,0,0,0-4.61.84c-2.64,1-1,2.82-1,2.8,10.74,5,3.08,23.39-7.47,26.11C743.15,327.66,741.85,320.63,731.11,325.31Z"
          transform="translate(-616.52 -258.82)"/>
    <path class="line"
          d="M638.55,363c-3.16,4.71,2.49,9.12,5.39,6.3-3.3-2.49,3.95-14.92,15.62-18.5l8.84.12a18.88,18.88,0,0,1,6,2,7.12,7.12,0,0,1,3.86,5.69c.09,2.69-.93,5.24-3.27,6.26,1.52-2.11,2.35-3.62,2.25-6.18s-1-4.27-3-5.35a19.47,19.47,0,0,0-6.53-1.86,32.25,32.25,0,0,0-6.36-.29l.93.11.21.1a11.25,11.25,0,0,1,1.53.82,5.93,5.93,0,0,1,2.48,3,4.26,4.26,0,0,0-2.23-3.27,5.45,5.45,0,0,0-1.55-.61c.53.08,1,.16,1.52.26,1.76.85,3.65,2.08,3.72,4.37.44-2-1.07-3.44-2.7-4.16l.78.2a5.72,5.72,0,0,1,3.49,5.13,4.77,4.77,0,0,0-2.08-4.71c.29.1.57.19.84.3a7.38,7.38,0,0,1,2.05,2.08,4.3,4.3,0,0,1,.48,4.51c-.77,1.3-2.7,2.58-4.12,1.75a2,2,0,0,1-1-2c.16-.61,1.34-1.28,1.46-.29-.06-1.09-1.41-.37-1.59.29a2.17,2.17,0,0,0,.72,2c1.36,1.22,3.49.15,4.49-1.1,1.88-2.38.42-5.28-1.72-6.93,2.72,1.19,4.08,2.65,4.39,3.67a4.13,4.13,0,0,1,.09,2.31,2.83,2.83,0,0,1-1.36,1.54.11.11,0,0,0,0,.13c.47.84,1.64,1.32,2.31.68-.62,1.82-2.51,3.44-4.23,2.14-.08-.06-.15,0-.12.12.51,1.47,1.22,3,2.72,3.41a3,3,0,0,0,3.08-1.07,3.51,3.51,0,0,1,.84,2.16c0,.06.07.13.12.09a31.5,31.5,0,0,0,2.95-2.05,10.5,10.5,0,0,0,2.13-3.84,9.54,9.54,0,0,0-6.82-10.75c-.39-.13-.89-.39-.55-.39,0,0,9.31.72,9.47,7.06,4.37-1.7.9-6.25.9-6.25s3.78,4.12,10.6-1.69l.06-.05c-7-5.62-10.53-2.11-10.53-2.11s3.19-4.4-1-5.85c-.19,6-9.54,7.17-9.54,7.17-.3,0,0-.3.76-.45,6.59-1.29,7.19-8.43,6.65-10.72a10.42,10.42,0,0,0-2.13-3.84,29.71,29.71,0,0,0-2.95-2.05c-.05,0-.13,0-.12.08a3.51,3.51,0,0,1-.84,2.17,3,3,0,0,0-3.08-1.07c-1.5.45-2.21,1.93-2.72,3.4,0,.08,0,.18.12.12,1.72-1.3,3.61.32,4.23,2.15-.67-.64-1.84-.17-2.31.68a.11.11,0,0,0,0,.13,2.76,2.76,0,0,1,1.36,1.54,4.1,4.1,0,0,1-.09,2.3c-.31,1-1.67,2.48-4.39,3.67,2.14-1.65,3.6-4.54,1.72-6.92-1-1.25-3.13-2.32-4.49-1.1a2.16,2.16,0,0,0-.72,2c.18.67,1.53,1.38,1.59.29-.12,1-1.3.33-1.46-.29a2,2,0,0,1,1-2c1.42-.83,3.35.45,4.12,1.75a4.32,4.32,0,0,1-.48,4.52,7.22,7.22,0,0,1-2.05,2.07c-.27.11-.55.21-.84.31a4.79,4.79,0,0,0,2.08-4.71,5.74,5.74,0,0,1-3.49,5.13l-.78.19c1.63-.72,3.14-2.19,2.7-4.16-.07,2.29-2,3.52-3.72,4.38-.48.09-1,.18-1.52.25a5.17,5.17,0,0,0,1.55-.61,4.25,4.25,0,0,0,2.23-3.26,5.87,5.87,0,0,1-2.48,3,10.24,10.24,0,0,1-1.53.82l-.21.1-.93.12a33.85,33.85,0,0,0,6.36-.29,19.49,19.49,0,0,0,6.53-1.87,6.12,6.12,0,0,0,3.23-5.48,7.61,7.61,0,0,0-2.44-6c2.16,1,3.36,3.56,3.27,6.25a7.09,7.09,0,0,1-3.86,5.69,18.2,18.2,0,0,1-5.63,1.95l-9.23.08c-12.13-2.94-18.47-15.88-15.07-18.33-2.84-2.88-8.59,1.41-5.52,6.18,0,0-.75,1.49-2.94-.12-1.28,3.86,7,8.48,13.08,10.93-3.93-1.34-8.5-2.94-10.63-3.82-4.13-1.72-10.92-4.68-12.71-2.21a3.41,3.41,0,0,0,1.5,5.19s-10.68-2.42-10.75,2.57c0,.05,0,.11,0,.16.13,4.52,8.09,3.8,10.32,2.73a3.34,3.34,0,0,0-1.3,4.66c1.8,3.45,11.37-.94,12.77-1.66.69-.36,4.69-1.69,8.72-2.94-5.83,2.45-12.51,6.41-11.43,9.9C637.83,361.54,638.55,363,638.55,363Zm.63-22.21c3.86,2,5.7,3.5,9.65,5.41-3.88-3-7-6-7.65-13.11,1,4.87,5.2,12.16,14.94,16.77C649.79,348.08,647.81,348,639.18,340.83Zm0,19.17c8.63-7.12,10.61-7.26,16.94-9.07-9.74,4.61-14,11.9-14.94,16.77.7-7.12,3.77-10.12,7.65-13.12C644.88,356.49,643,358,639.18,360Z"
          transform="translate(-616.52 -258.82)"/>
    <path class="line"
          d="M720.73,332.82c1,2.91-.18,5.63-2.36,7.68a15.84,15.84,0,0,1-7.12,3.53c-.08.62,1,.33,1.42.29a15.22,15.22,0,0,0,2.14-.39,12.3,12.3,0,0,0,4.71-2.39c2-1.67,3.8-4.13,3.44-6.94-.39-3.07-3.93-6.09-7-5.3-1.36.35-2.82,2.22-1.87,3.61.26.38,1.42,1.23,2.16.39a1.36,1.36,0,0,0-.13-2.11,1.33,1.33,0,0,0-1.88.12,1.11,1.11,0,0,0-.16.24,2.3,2.3,0,0,1,.2-.61,2.67,2.67,0,0,1,3.38-1.18A5.74,5.74,0,0,1,720.73,332.82Z"
          transform="translate(-616.52 -258.82)"/>
    <path class="line"
          d="M648.82,318.37c8.47-12,31.06-9.39,37.67,1.11-2.06-7.67-11.51-12.06-18.39-12.06C660.38,307.42,652.32,309.23,648.82,318.37Z"
          transform="translate(-616.52 -258.82)"/>
    <path class="line"
          d="M670.24,383.27c7.68-1.37,12.42-7.56,17-13.26,4.28-5.29,9.85-9.7,17.11-7.18,5.65,2,6.69,10.47,2.3,14.21-2.14,1.83-5.78,2.76-8,.59-1.81-1.74-2.16-6,1.23-6.08-1.39-.08-1.59,0-.59,0-2.75.3-2.87,4-1.57,5.93,1.69,2.48,4.9,2.72,7.52,1.74,6-2.25,7.57-10.52,3.86-15.43V337c3.71-4.9,2.13-13.17-3.86-15.42-2.62-1-5.83-.75-7.52,1.74-1.3,1.9-1.18,5.63,1.57,5.92-1,0-.8.1.59,0-3.39-.11-3-4.34-1.23-6.08,2.25-2.17,5.89-1.24,8,.59,4.39,3.75,3.35,12.26-2.3,14.21-7.26,2.52-12.83-1.88-17.11-7.17-4.62-5.7-9.36-11.89-17-13.26-6.52-1.17-14.1.91-18.73,5.72-5.14,5.33-6.85,14.47-.72,19.79,4.46,3.86,13.44,4.28,14.14-3.42a5.77,5.77,0,0,0-6-6c-2.9.22-5.93,4.94-1.92,5.9-3.36-1.18-.8-5,1.74-5.1s5.24,2.59,4.62,5.24c-1.68,7.2-10.34,3.71-12.83-.75-3.4-6.11,1.21-13.6,6.72-16.55a18.36,18.36,0,0,1,19.89,1.42c5.1,4,8.21,10.07,13.36,14.05,4.32,3.35,12.12,4.43,16.8.94V362c-4.68-3.49-12.48-2.41-16.8.93-5.15,4-8.26,10-13.36,14.06a18.4,18.4,0,0,1-19.89,1.42c-5.51-3-10.12-10.44-6.72-16.55,2.49-4.46,11.15-7.95,12.83-.76.62,2.66-1.94,5.4-4.62,5.25s-5.1-3.92-1.74-5.11c-4,1-1,5.68,1.92,5.91a5.79,5.79,0,0,0,6-6c-.7-7.7-9.68-7.28-14.14-3.43-6.13,5.33-4.42,14.46.72,19.79C656.14,382.35,663.72,384.44,670.24,383.27Z"
          transform="translate(-616.52 -258.82)"/>
    <path class="line"
          d="M645.12,329.35c4.7-9.51,12.16-13.73,22.26-13.91,7.42-.14,17.44,6.6,20.8,14.4C687,318.18,675,312.41,667.72,312.5,656.7,312.62,648.59,316.76,645.12,329.35Z"
          transform="translate(-616.52 -258.82)"/>
    <path class="line"
          d="M752.59,352.31a2.85,2.85,0,0,0,.73-1.9,2.81,2.81,0,0,0-.73-1.89,3.35,3.35,0,0,0-2.51-1.09,3,3,0,1,0,0,6A3.38,3.38,0,0,0,752.59,352.31Z"
          transform="translate(-616.52 -258.82)"/>
    <path class="line" d="M736.92,309.83c-11.95,9.53-30.2,6.56-31.61-10.62C703.7,317.6,726.31,321.72,736.92,309.83Z"
          transform="translate(-616.52 -258.82)"/>
    <path class="line"
          d="M718.91,309.61c8,2.7,17.6-.74,21.36-8.39l.27-.56a18.4,18.4,0,0,1-21.16,7.59c-8.44-2.77-11.09-11.58-10.45-19.66C707,297.16,710.06,306.56,718.91,309.61Z"
          transform="translate(-616.52 -258.82)"/>
    <path class="line"
          d="M782.86,408.88a30.69,30.69,0,0,1-2,9.58,20.67,20.67,0,0,1-5.35,8,16.17,16.17,0,0,1-8.91,3.89,14.2,14.2,0,0,0,9.62-3,19.26,19.26,0,0,0,6-8.36A26.62,26.62,0,0,0,784,408.89c-.11-3.38-.73-7-2.9-9.65A12.91,12.91,0,0,1,782.6,404,23.24,23.24,0,0,1,782.86,408.88Z"
          transform="translate(-616.52 -258.82)"/>
    <path class="line"
          d="M768.91,383.72c-.07-.16-.56.09-.47.24,3.73,10.08-5.42,19-11.27,17.52a.25.25,0,0,0-.41.25c.87,4.94,13.93,8.13,15.34-1.77,1.19,2,5.65,2,6.39-.91C780.13,392.69,772.12,390.52,768.91,383.72Z"
          transform="translate(-616.52 -258.82)"/>
    <path class="line"
          d="M752.59,368.9c-6.1-4.06-15.7-7.7-30.64-10,9.15,4.76,13.88,11.45,9.16,16.63,10.74,4.69,12-2.34,8.4-7.46,10.55,2.72,18.21,21.1,7.47,26.11,0,0-1.64,1.8,1,2.8a9.48,9.48,0,0,0,4.61.84,10.53,10.53,0,0,0,9.28-7.26C763,386.73,764.74,377,752.59,368.9Z"
          transform="translate(-616.52 -258.82)"/>
    <path class="line"
          d="M783.52,364.56c-1-2.88,0-5.63,2.15-7.75a16,16,0,0,1,7-3.73c.06-.62-1-.29-1.43-.24a15.48,15.48,0,0,0-2.13.44,12.52,12.52,0,0,0-4.64,2.53c-2,1.73-3.68,4.23-3.24,7,.47,3.06,4.1,6,7.17,5.1,1.35-.38,2.76-2.3,1.78-3.66-.28-.37-1.46-1.2-2.18-.33a1.37,1.37,0,0,0,.19,2.11,1.33,1.33,0,0,0,1.88-.18,1.58,1.58,0,0,0,.15-.24,2.12,2.12,0,0,1-.18.62,2.68,2.68,0,0,1-3.35,1.27A5.74,5.74,0,0,1,783.52,364.56Z"
          transform="translate(-616.52 -258.82)"/>
    <path class="line"
          d="M825.76,364.52c3.7-9.79,13.78-13.71,13.78-13.71s-.29-.13-.78-.4c-2.42-1.32-9.92-6-13-14.1,0,0-6,4.38-1.32,10.08-4.24-1.82-9.93,4-9.94,4h0s6.14,5.63,9.94,4C819.76,360.13,825.76,364.52,825.76,364.52Z"
          transform="translate(-616.52 -258.82)"/>
    <path class="line"
          d="M809.86,365c1.18-2.57.22-5.45-1.2-7.65a12.55,12.55,0,0,0-3.78-3.69,15.39,15.39,0,0,0-1.93-1c-.35-.16-1.33-.77-1.44-.15a15.69,15.69,0,0,1,5.74,5.5c1.46,2.61,1.74,5.55,0,8a5.69,5.69,0,0,1-3.87,2,2.67,2.67,0,0,1-2.88-2.13,2.34,2.34,0,0,1,0-.65,1.31,1.31,0,0,0,.09.28,1.33,1.33,0,0,0,1.76.68,1.37,1.37,0,0,0,.75-2c-.45-1-1.82-.56-2.18-.27-1.32,1-.49,3.26.71,4C804.28,369.62,808.57,367.81,809.86,365Z"
          transform="translate(-616.52 -258.82)"/>
    <path class="line"
          d="M767,364.52c3.7-9.79,13.78-13.71,13.78-13.71s-.29-.13-.77-.4c-2.43-1.32-9.93-6-13-14.1,0,0-6,4.38-1.32,10.08-4.23-1.82-9.93,4-9.94,4h0s6.14,5.63,9.94,4C761,360.13,767,364.52,767,364.52Z"
          transform="translate(-616.52 -258.82)"/>
    <path class="line"
          d="M794.61,406.18a40.62,40.62,0,0,0-8.19-19.28,36.21,36.21,0,0,0-4.87-5,45.55,45.55,0,0,1,7.71,11.42,46.37,46.37,0,0,1,3.92,13.1,39.14,39.14,0,0,1-.31,13.61,24.12,24.12,0,0,1-2.26,6.43,17,17,0,0,1-4.23,5.39,16,16,0,0,0,4.85-5,24.8,24.8,0,0,0,2.72-6.53A35.49,35.49,0,0,0,794.61,406.18Z"
          transform="translate(-616.52 -258.82)"/>
    <path class="line" d="M856.33,358.21c3.42,8-.8,16.23,4.94,19.05C867.17,376.65,866,364.85,856.33,358.21Z"
          transform="translate(-616.52 -258.82)"/>
    <path class="line" d="M860.92,357.25c5.7,4.45,5.94,12.17,11.26,11.93C876.24,366.36,870.61,358.23,860.92,357.25Z"
          transform="translate(-616.52 -258.82)"/>
    <path class="line" d="M867.1,355.41c5.7,2,8,8,12.12,6.33C881.65,358.41,875,353.54,867.1,355.41Z"
          transform="translate(-616.52 -258.82)"/>
    <path class="line" d="M888.65,350.47v-.05h0v-.13c0-6-18.1-.12-18.72.1l.08,0C871.45,350.9,888.65,356.37,888.65,350.47Z"
          transform="translate(-616.52 -258.82)"/>
    <path class="line"
          d="M851.5,365.76c-.08-.24-1.19-.52-1.14.61,1.12,6.23-7.08,14.07-17.38,12.47a11.58,11.58,0,0,0,8.45,2.52c4.66-.54,9-2.93,10.45-7.57-1,5-5.43,7.93-10.2,9a11,11,0,0,1-1.94.29c3.68.89,6.61.23,10.45-.12-4.38.86-7.44,2.1-12.13,1.16a31.07,31.07,0,0,1-5.92-1.77,10.81,10.81,0,0,1,0,8.12c-1.66,4.12-5.57,5.42-8.34,8.53,2-2.91,5.3-4.54,6.62-7.94a9,9,0,0,0-.51-7.81c-.33,4.51-3.42,7.76-6.85,11.22-2.67,2.68-5.06,5.8-4.69,9.79.64,7,10.73,7.89,10.58,1,0-.57-.91-.83-1.14-.25-1.21,2.95-5.25.79-4.32-1.91.63-1.84,2.35-2.42,4-2.55,7.93-.6,9.19-9.94,7.38-15,4.49,3.57,14.68,3.43,17.55,1,2-1.68,3.54-4.05,6.27-4.54a.61.61,0,0,0,.48-.93c-1.48-2.58-3.62-1.52-5.84-1.28C857.37,376.27,856.83,368.15,851.5,365.76Z"
          transform="translate(-616.52 -258.82)"/>
    <path class="line"
          d="M811.49,418c-3.76-.91-5.21-8.71-.75-13.08,3.62-3.55,8-7.22,10.92-11.37,6.15-8.67,5.71-17.37,2.76-23.6.47.38.92.77,1.42,1.12,6,4.18,14.37,6.86,20.29,1.09,4.72-4.59,4-11.51-.92-15.7-3.2-2.73-7.88-3.22-10.93.06-2.56,2.76-2.39,7.14,1.55,8.35-3.63-1.72-2.77-6,.22-7.9,3.31-2.13,7,0,9,2.86,3.13,4.57,1.37,10.14-3.9,12.22-6.24,2.47-13.08-3.07-17.59-6.92-5.26-4.49-9.31-10.49-19.78-13.27C821.3,362,824.92,377,823,384.65c-1.35,5.49-5.8,11.93-12.58,10.19-3.54-.89-7.21-2.44-8.87-5.79a9.31,9.31,0,0,1,3.5-11.91,8.07,8.07,0,0,1,6.14-1,5,5,0,0,1,.71.27c-4.56,2.13-4.3,8.1-.86,9.8,4.26,2.1,8.8-4.41,5.44-8.76-6.63-8.59-23.07-.18-18,12.13,2.74,6.65,10.42,8.63,16.4,7-8.44,4-14.1,12-13.5,20.49.39,5.59,7.53,11.79,13.35,9.94C818.82,425.74,816.6,419.27,811.49,418Z"
          transform="translate(-616.52 -258.82)"/>
    <path class="line"
          d="M836.62,389.57c3,3-.56,8.35,3.77,11.78,3.17,2.52,6.68,3.71,10.33,2.1a.63.63,0,0,0,0-1.13c-4.37-2.14-2-6.67-4.46-9.11-2.19-2.2-6.87-2.17-8.89-4.6C836.88,388,836,389.15,836.62,389.57Z"
          transform="translate(-616.52 -258.82)"/>
    <path class="line"
          d="M790.25,308a41,41,0,0,0,4.36-13.39,35.5,35.5,0,0,0-.66-14.07,24.87,24.87,0,0,0-2.72-6.52,16,16,0,0,0-4.85-5,16.87,16.87,0,0,1,4.23,5.39,24.12,24.12,0,0,1,2.26,6.43,39.13,39.13,0,0,1,.31,13.61,46.4,46.4,0,0,1-3.92,13.09A45.37,45.37,0,0,1,781.55,319a36.14,36.14,0,0,0,4.87-5A41.66,41.66,0,0,0,790.25,308Z"
          transform="translate(-616.52 -258.82)"/>
    <path class="line"
          d="M807.25,342.84a15.85,15.85,0,0,1-5.74,5.5c.11.61,1.09,0,1.44-.16a14.17,14.17,0,0,0,1.93-1,12.43,12.43,0,0,0,3.78-3.69c1.42-2.19,2.38-5.08,1.2-7.65-1.29-2.81-5.58-4.63-8.29-2.95-1.2.74-2,3-.71,4,.36.28,1.73.75,2.18-.27a1.37,1.37,0,0,0-.75-2,1.33,1.33,0,0,0-1.76.68,1.43,1.43,0,0,0-.09.27,2.27,2.27,0,0,1,0-.64,2.68,2.68,0,0,1,2.88-2.14,5.77,5.77,0,0,1,3.87,2C809,337.29,808.71,340.22,807.25,342.84Z"
          transform="translate(-616.52 -258.82)"/>
    <path class="line"
          d="M801.3,344.43a3.24,3.24,0,0,0-6.44,0,19,19,0,0,0,0,12.51,3.24,3.24,0,0,0,6.44,0,24.76,24.76,0,0,1-.81-6.53A25.09,25.09,0,0,1,801.3,344.43Z"
          transform="translate(-616.52 -258.82)"/>
    <path class="line"
          d="M781.25,338c-.44,2.8,1.27,5.31,3.24,7a12.52,12.52,0,0,0,4.64,2.53,15.51,15.51,0,0,0,2.13.45c.39.05,1.49.37,1.43-.25a15.79,15.79,0,0,1-7-3.73c-2.12-2.11-3.19-4.87-2.15-7.74a5.74,5.74,0,0,1,3.19-3,2.67,2.67,0,0,1,3.35,1.27,2,2,0,0,1,.18.62,1,1,0,0,0-.15-.24,1.33,1.33,0,0,0-1.88-.18,1.37,1.37,0,0,0-.19,2.11c.72.86,1.9,0,2.18-.33,1-1.37-.43-3.28-1.78-3.66C785.35,332,781.72,334.92,781.25,338Z"
          transform="translate(-616.52 -258.82)"/>
    <path class="line"
          d="M768.44,316.91c-.09.15.4.4.47.24,3.21-6.81,11.22-9,9.58-15.33-.74-2.87-5.2-2.88-6.39-.91-1.41-9.91-14.47-6.72-15.34-1.77a.25.25,0,0,0,.41.25C763,297.86,772.17,306.82,768.44,316.91Z"
          transform="translate(-616.52 -258.82)"/>
    <path class="line"
          d="M781.07,301.58c2.17-2.66,2.79-6.27,2.9-9.64a26.7,26.7,0,0,0-1.77-10.1,19.32,19.32,0,0,0-6-8.36,15.42,15.42,0,0,0-4.57-2.41,15,15,0,0,0-5-.61,16.09,16.09,0,0,1,8.91,3.88,20.78,20.78,0,0,1,5.35,8,30.63,30.63,0,0,1,2,9.58,23.15,23.15,0,0,1-.26,4.92A12.79,12.79,0,0,1,781.07,301.58Z"
          transform="translate(-616.52 -258.82)"/>
    <path class="line"
          d="M827.79,295.82c.23.58,1.13.32,1.14-.25.15-6.85-9.94-5.92-10.58,1-.37,4,2,7.1,4.69,9.79,3.43,3.46,6.52,6.71,6.85,11.21a9,9,0,0,0,.51-7.8c-1.32-3.41-4.63-5-6.62-7.95,2.77,3.11,6.68,4.42,8.34,8.54a10.81,10.81,0,0,1,0,8.12,31.07,31.07,0,0,1,5.92-1.77c4.69-.94,7.75.29,12.13,1.16-3.84-.36-6.77-1-10.45-.12a11.94,11.94,0,0,1,1.94.28c4.77,1.08,9.2,4,10.2,9-1.43-4.64-5.79-7-10.45-7.58A11.63,11.63,0,0,0,833,322c10.3-1.61,18.5,6.24,17.38,12.46-.05,1.14,1.06.85,1.14.61,5.33-2.38,5.87-10.51,1.81-14.09,2.22.24,4.36,1.3,5.84-1.28a.62.62,0,0,0-.48-.94c-2.73-.48-4.27-2.85-6.27-4.53-2.87-2.41-13.06-2.56-17.55,1,1.81-5,.55-14.4-7.38-15-1.65-.12-3.37-.7-4-2.55C822.54,295,826.58,292.87,827.79,295.82Z"
          transform="translate(-616.52 -258.82)"/>
    <path class="line"
          d="M836.62,311.29c-.65.42.26,1.57.76,1,2-2.43,6.7-2.41,8.89-4.61,2.45-2.44.09-7,4.46-9.11a.63.63,0,0,0,0-1.13c-3.65-1.6-7.16-.41-10.33,2.1C836.06,303,839.58,308.29,836.62,311.29Z"
          transform="translate(-616.52 -258.82)"/>
    <path class="line"
          d="M816.51,323.4c3.36-4.35-1.18-10.86-5.44-8.76-3.44,1.7-3.7,7.67.86,9.8a5,5,0,0,1-.71.27,8.07,8.07,0,0,1-6.14-1,9.32,9.32,0,0,1-3.5-11.92c1.66-3.34,5.33-4.89,8.87-5.79,6.78-1.73,11.23,4.71,12.58,10.2,1.89,7.63-1.73,22.65-19.25,32.76,10.47-2.78,14.52-8.78,19.78-13.28,4.51-3.85,11.35-9.38,17.59-6.91,5.27,2.08,7,7.65,3.9,12.22-2,2.88-5.69,5-9,2.85-3-1.89-3.85-6.17-.22-7.89-3.94,1.21-4.11,5.59-1.55,8.35,3.05,3.28,7.73,2.79,10.93.06,4.9-4.19,5.64-11.11.92-15.71-5.92-5.76-14.33-3.09-20.29,1.1-.5.35-1,.74-1.42,1.12,3-6.24,3.39-14.93-2.76-23.6-2.94-4.15-7.3-7.82-10.92-11.37-4.46-4.37-3-12.17.75-13.09,5.11-1.23,7.33-7.7,3.26-9-5.82-1.85-13,4.35-13.35,9.94-.6,8.46,5.06,16.46,13.5,20.49-6-1.62-13.66.36-16.4,7C793.44,323.58,809.88,332,816.51,323.4Z"
          transform="translate(-616.52 -258.82)"/>
    <polygon class="line" points="240.08 84.41 228.56 91.59 240.08 98.76 251.6 91.59 240.08 84.41"/>
    <path class="line" d="M861.27,323.56c-5.74,2.82-1.52,11.08-4.94,19.06C866,336,867.17,324.17,861.27,323.56Z"
          transform="translate(-616.52 -258.82)"/>
    <path class="line" d="M872.18,331.65c-5.32-.25-5.56,7.48-11.26,11.93C870.61,342.59,876.24,334.46,872.18,331.65Z"
          transform="translate(-616.52 -258.82)"/>
    <path class="line" d="M879.22,339.09c-4.12-1.65-6.42,4.37-12.12,6.32C875,347.28,881.65,342.41,879.22,339.09Z"
          transform="translate(-616.52 -258.82)"/>
    <path class="line"
          d="M781,379.37c2.9,1.13,5.92,1.43,8.3-.17a5.9,5.9,0,0,0,2.71-5.46,3.57,3.57,0,0,0-1.78-2.78,4,4,0,0,0-2.64-1,3.86,3.86,0,0,0-3.93,3.78,3.71,3.71,0,0,0,1.46,2.93c-2.28-.27-4.69-2-6.16-3.57-2-2.16-3.27-5.45-2.32-10,.5-2.42,4.66-9.36,16.17-11.37l0-1.29,0-1.29c-11.51-2-15.67-8.94-16.17-11.37-.95-4.58.27-7.88,2.32-10,1.47-1.55,3.88-3.29,6.16-3.57a3.71,3.71,0,0,0-1.46,2.94,3.85,3.85,0,0,0,3.93,3.77,4,4,0,0,0,2.64-1,3.56,3.56,0,0,0,1.78-2.78,5.91,5.91,0,0,0-2.71-5.46c-2.38-1.6-5.4-1.29-8.3-.17-5.94,2.4-9.38,8.52-8.6,14,1,7.27,5.16,12.84,12.24,15h0c-7.08,2.17-11.21,7.74-12.24,15C771.66,370.86,775.1,377,781,379.37Z"
          transform="translate(-616.52 -258.82)"/>
    <path class="line"
          d="M752.59,263.09a27,27,0,0,0-9.19,9.64,62,62,0,0,0-5,13.89,80.62,80.62,0,0,1,5.85-13.4,28.57,28.57,0,0,1,8.38-8.44c.67-.45,1.36-.87,2.06-1.27a25.49,25.49,0,0,1,13.71-3.42,23.93,23.93,0,0,1,13.31,5.18,23.5,23.5,0,0,0-6-4.3,21.87,21.87,0,0,0-7.2-2,24.65,24.65,0,0,0-14.51,3.33C753.48,262.53,753,262.81,752.59,263.09Z"
          transform="translate(-616.52 -258.82)"/>
</svg>